push cb
push arg
push frames



push esi
push edi
mov eax, 0051AD40
call eax
mov esi, eax
xor edi, edi
cmp esi, edi
jne l1
push edi
mov eax, 00507230
call eax
add esp, 04
pop edi
pop esi
ret

l1:
mov eax,[esp+0C]
mov ecx,[0084EA04]
mov edx,[esp+10]
add ecx,eax
mov eax,[esp+14]
mov [esi],ecx
mov [esi+04],edx
mov [esi+08],eax
mov eax, 0051AD20
call eax
push eax
mov [esi+0C],eax
mov [esi+10],edi
mov [esi+14],edi
mov [esi+18],edi
mov eax, 00507230
call eax
mov eax,[00833958]
add esp,04
cmp eax,edi
jne l2
mov [00833958],esi
mov [esi+1C],edi
pop edi
pop esi
ret
l2:
mov ecx,[eax+18]
cmp ecx,edi
je l3
l4:
mov eax, ecx
mov ecx, [eax+18]
cmp ecx, edi
jne l4
l3:
mov [eax+18],esi
mov [esi+1C],eax
pop edi
pop esi
ret



















